AVR_USART/wokwi-logic.vcd
$version Generated by Wokwi.com $end
$date Sat, 14 Sep 2024 13:59:33 GMT $end
$timescale 1ns $end
$scope module logic $end
$var wire 1 ! D0 $end
$upscope $end
$enddefinitions $end
#0
0!
#1375
1!
#2062
0!
#210070
1!
#314074
0!
#522082
1!
#626086
0!
#730090
1!
#834094
0!
#938098
1!
#1042374
0!
#1146379
1!
#1250383
0!
#1770403
1!
#1874407
0!
#1978411
1!
#2082687
0!
#2394699
1!
#2498703
0!
#2602707
1!
#2706711
0!
#2810715
1!
#2914719
0!
#3018723
1!
#3123000
0!
#3227004
1!
#3331008
0!
#3851028
1!
#3955032
0!
#4059036
1!
#4163312
0!
#4371320
1!
#4683332
0!
#4891340
1!
#4995344
0!
#5099348
1!
#5203625
0!
#5307628
1!
#5515636
0!
#5619641
1!
#5723645
0!
#5931653
1!
#6035657
0!
#6139661
1!
#6243937
0!
#6347941
1!
#6451945
0!
#6659953
1!
#6867961
0!
#6971965
1!
#7075969
0!
#7179973
1!
#7284250
0!
#7492258
1!
#7596261
0!
#7700266
1!
#7804270
0!
#8220286
1!
#1007285312
0!
#1007493320
1!
#1007597324
0!
#1007805332
1!
#1007909336
0!
#1008013340
1!
#1008117344
0!
#1008221348
1!
#1008325624
0!
#1008429628
1!
#1008533633
0!
#1009053653
1!
#1009157657
0!
#1009261661
1!
#1009365937
0!
#1009677949
1!
#1009781953
0!
#1009885957
1!
#1009989961
0!
#1010093965
1!
#1010197969
0!
#1010301973
1!
#1010406250
0!
#1010510254
1!
#1010614257
0!
#1011134278
1!
#1011238282
0!
#1011342285
1!
#1011446562
0!
#1011654570
1!
#1011966582
0!
#1012174590
1!
#1012278594
0!
#1012382598
1!
#1012486875
0!
#1012590879
1!
#1012798887
0!
#1012902891
1!
#1013006895
0!
#1013214903
1!
#1013318906
0!
#1013422910
1!
#1013527187
0!
#1013631191
1!
#1013735195
0!
#1013943203
1!
#1014151211
0!
#1014255215
1!
#1014359219
0!
#1014463223
1!
#1014567500
0!
#1014775508
1!
#1014879512
0!
#1014983516
1!
#1015087520
0!
#1015503536
1!
#2014568562
0!
#2014776570
1!
#2014880574
0!
#2015088582
1!
#2015192586
0!
#2015296590
1!
#2015400594
0!
#2015504598
1!
#2015608874
0!
#2015712879
1!
#2015816882
0!
#2016336903
1!
#2016440906
0!
#2016544911
1!
#2016649187
0!
#2016961199
1!
#2017065203
0!
#2017169207
1!
#2017273211
0!
#2017377215
1!
#2017481219
0!
#2017585223
1!
#2017689500
0!
#2017793504
1!
#2017897508
0!
#2018417528
1!
#2018521531
0!
#2018625536
1!
#2018729812
0!
#2018937820
1!
#2019249832
0!
#2019457840
1!
#2019561844
0!
#2019665848
1!
#2019770125
0!
#2019874128
1!
#2020082137
0!
#2020186141
1!
#2020290145
0!
#2020498153
1!
#2020602157
0!
#2020706161
1!
#2020810437
0!
#2020914441
1!
#2021018445
0!
#2021226453
1!
#2021434461
0!
#2021538465
1!
#2021642469
0!
#2021746473
1!
#2021850750
0!
#2022058758
1!
#2022162762
0!
#2022266766
1!
#2022370770
0!
#2022786786
1!
#3021851812
0!
#3022059820
1!
#3022163824
0!
#3022371832
1!
#3022475836
0!
#3022579840
1!
#3022683844
0!
#3022787848
1!
#3022892125
0!
#3022996129
1!
#3023100133
0!
#3023620153
1!
#3023724157
0!
#3023828161
1!
#3023932437
0!
#3024244449
1!
#3024348453
0!
#3024452457
1!
#3024556461
0!
#3024660465
1!
#3024764469
0!
#3024868473
1!
#3024972750
0!
#3025076754
1!
#3025180758
0!
#3025700778
1!
#3025804782
0!
#3025908786
1!
#3026013062
0!
#3026221070
1!
#3026533082
0!
#3026741090
1!
#3026845094
0!
#3026949098
1!
#3027053375
0!
#3027157379
1!
#3027365387
0!
#3027469391
1!
#3027573395
0!
#3027781403
1!
#3027885407
0!
#3027989410
1!
#3028093687
0!
#3028197691
1!
#3028301695
0!
#3028509703
1!
#3028717711
0!
#3028821715
1!
#3028925719
0!
#3029029723
1!
#3029134000
0!
#3029342008
1!
#3029446012
0!
#3029550016
1!
#3029654020
0!
#3030070035
1!
#4029135062
0!
#4029343070
1!
#4029447074
0!
#4029655082
1!
#4029759086
0!
#4029863090
1!
#4029967094
0!
#4030071098
1!
#4030175375
0!
#4030279379
1!
#4030383383
0!
#4030903403
1!
#4031007406
0!
#4031111410
1!
#4031215687
0!
#4031527699
1!
#4031631703
0!
#4031735707
1!
#4031839711
0!
#4031943715
1!
#4032047719
0!
#4032151723
1!
#4032256000
0!
#4032360004
1!
#4032464008
0!
#4032984027
1!
#4033088032
0!
#4033192036
1!
#4033296312
0!
#4033504320
1!
#4033816332
0!
#4034024340
1!
#4034128344
0!
#4034232348
1!
#4034336625
0!
#4034440629
1!
#4034648637
0!
#4034752641
1!
#4034856644
0!
#4035064653
1!
#4035168657
0!
#4035272660
1!
#4035376937
0!
#4035480941
1!
#4035584945
0!
#4035792953
1!
#4036000961
0!
#4036104965
1!
#4036208969
0!
#4036312973
1!
#4036417250
0!
#4036625258
1!
#4036729261
0!
#4036833265
1!
#4036937270
0!
#4037353286
1!
#5036418312
0!
#5036626320
1!
#5036730324
0!
#5036938332
1!
#5037042336
0!
#5037146340
1!
#5037250344
0!
#5037354348
1!
#5037458625
0!
#5037562629
1!
#5037666633
0!
#5038186653
1!
#5038290656
0!
#5038394661
1!
#5038498937
0!
#5038810949
1!
#5038914953
0!
#5039018957
1!
#5039122961
0!
#5039226965
1!
#5039330969
0!
#5039434973
1!
#5039539250
0!
#5039643254
1!
#5039747258
0!
#5040267278
1!
#5040371282
0!
#5040475286
1!
#5040579562
0!
#5040787570
1!
#5041099582
0!
#5041307590
1!
#5041411594
0!
#5041515598
1!
#5041619875
0!
#5041723879
1!
#5041931887
0!
#5042035891
1!
#5042139894
0!
#5042347903
1!
#5042451906
0!
#5042555911
1!
#5042660187
0!
#5042764191
1!
#5042868195
0!
#5043076203
1!
#5043284211
0!
#5043388215
1!
#5043492219
0!
#5043596223
1!
#5043700500
0!
#5043908508
1!
#5044012512
0!
#5044116516
1!
#5044220520
0!
#5044636536
1!
#6043701562
0!
#6043909570
1!
#6044013574
0!
#6044221582
1!
#6044325586
0!
#6044429590
1!
#6044533594
0!
#6044637598
1!
#6044741875
0!
#6044845878
1!
#6044949883
0!
#6045469903
1!
#6045573907
0!
#6045677911
1!
#6045782187
0!
#6046094199
1!
#6046198203
0!
#6046302207
1!
#6046406211
0!
#6046510215
1!
#6046614219
0!
#6046718223
1!
#6046822500
0!
#6046926504
1!
#6047030508
0!
#6047550528
1!
#6047654531
0!
#6047758536
1!
#6047862812
0!
#6048070820
1!
#6048382832
0!
#6048590840
1!
#6048694844
0!
#6048798848
1!
#6048903125
0!
#6049007129
1!
#6049215137
0!
#6049319141
1!
#6049423145
0!
#6049631153
1!
#6049735157
0!
#6049839161
1!
#6049943437
0!
#6050047441
1!
#6050151445
0!
#6050359453
1!
#6050567461
0!
#6050671465
1!
#6050775469
0!
#6050879473
1!
#6050983750
0!
#6051191758
1!
#6051295762
0!
#6051399765
1!
#6051503769
0!
#6051919786
1!
#7050984812
0!
#7051192820
1!
#7051296824
0!
#7051504832
1!
#7051608836
0!
#7051712840
1!
#7051816844
0!
#7051920848
1!
#7052025125
0!
#7052129129
1!
#7052233133
0!
#7052753153
1!
#7052857157
0!
#7052961161
1!
#7053065437
0!
#7053377449
1!
#7053481453
0!
#7053585457
1!
#7053689461
0!
#7053793465
1!
#7053897469
0!
#7054001473
1!
#7054105750
0!
#7054209753
1!
#7054313758
0!
#7054833778
1!
#7054937782
0!
#7055041786
1!
#7055146062
0!
#7055354070
1!
#7055666082
0!
#7055874090
1!
#7055978094
0!
#7056082098
1!
#7056186375
0!
#7056290379
1!
#7056498387
0!
#7056602391
1!
#7056706395
0!
#7056914402
1!
#7057018406
0!
#7057122411
1!
#7057226687
0!
#7057330691
1!
#7057434695
0!
#7057642703
1!
#7057850711
0!
#7057954715
1!
#7058058719
0!
#7058162723
1!
#7058267000
0!
#7058475008
1!
#7058579012
0!
#7058683016
1!
#7058787020
0!
#7059203036
1!
#8058268062
0!
#8058476070
1!
#8058580074
0!
#8058788082
1!
#8058892086
0!
#8058996090
1!
#8059100094
0!
#8059204098
1!
#8059308375
0!
#8059412378
1!
#8059516383
0!
#8060036403
1!
#8060140407
0!
#8060244411
1!
#8060348687
0!
#8060660699
1!
#8060764703
0!
#8060868707
1!
#8060972711
0!
#8061076715
1!
#8061180719
0!
#8061284723
1!
#8061389000
0!
#8061493003
1!
#8061597008
0!
#8062117027
1!
#8062221032
0!
#8062325036
1!
#8062429312
0!
#8062637320
1!
#8062949332
0!
#8063157340
1!
#8063261344
0!
#8063365348
1!
#8063469625
0!
#8063573629
1!
#8063781637
0!
#8063885641
1!
#8063989644
0!
#8064197653
1!
#8064301657
0!
#8064405661
1!
#8064509937
0!
#8064613941
1!
#8064717945
0!
#8064925953
1!
#8065133961
0!
#8065237965
1!
#8065341969
0!
#8065445973
1!
#8065550249
0!
#8065758258
1!
#8065862262
0!
#8065966266
1!
#8066070269
0!
#8066486286
1!
#9065551312
0!
#9065759320
1!
#9065863324
0!
#9066071332
1!
#9066175336
0!
#9066279340
1!
#9066383344
0!
#9066487348
1!
#9066591625
0!
#9066695629
1!
#9066799632
0!
#9067319653
1!
#9067423657
0!
#9067527661
1!
#9067631937
0!
#9067943949
1!
#9068047953
0!
#9068151957
1!
#9068255961
0!
#9068359965
1!
#9068463969
0!
#9068567973
1!
#9068672250
0!
#9068776254
1!
#9068880258
0!
#9069400278
1!
#9069504282
0!
#9069608286
1!
#9069712562
0!
#9069920570
1!
#9070232582
0!
#9070440590
1!
#9070544594
0!
#9070648598
1!
#9070752875
0!
#9070856879
1!
#9071064887
0!
#9071168891
1!
#9071272895
0!
#9071480903
1!
#9071584907
0!
#9071688911
1!
#9071793187
0!
#9071897191
1!
#9072001195
0!
#9072209203
1!
#9072417211
0!
#9072521215
1!
#9072625219
0!
#9072729223
1!
#9072833500
0!
#9073041508
1!
#9073145512
0!
#9073249516
1!
#9073353520
0!
#9073769536
1!
#10072834562
0!
#10073042570
1!
#10073146574
0!
#10073354582
1!
#10073458586
0!
#10073562590
1!
#10073666594
0!
#10073770598
1!
#10073874875
0!
#10073978879
1!
#10074082883
0!
#10074602903
1!
#10074706907
0!
#10074810911
1!
#10074915187
0!
#10075227199
1!
#10075331203
0!
#10075435207
1!
#10075539211
0!
#10075643215
1!
#10075747219
0!
#10075851223
1!
#10075955500
0!
#10076059504
1!
#10076163507
0!
#10076683528
1!
#10076787532
0!
#10076891536
1!
#10076995812
0!
#10077203820
1!
#10077515832
0!
#10077723840
1!
#10077827844
0!
#10077931848
1!
#10078036125
0!
#10078140129
1!
#10078348137
0!
#10078452141
1!
#10078556145
0!
#10078764153
1!
#10078868157
0!
#10078972161
1!
#10079076437
0!
#10079180441
1!
#10079284445
0!
#10079492453
1!
#10079700461
0!
#10079804465
1!
#10079908469
0!
#10080012473
1!
#10080116750
0!
#10080324758
1!
#10080428762
0!
#10080532766
1!
#10080636770
0!
#10081052786
1!
#11080117812
0!
#11080325820
1!
#11080429824
0!
#11080637832
1!
#11080741836
0!
#11080845840
1!
#11080949844
0!
#11081053848
1!
#11081158125
0!
#11081262129
1!
#11081366133
0!
#11081886153
1!
#11081990157
0!
#11082094161
1!
#11082198437
0!
#11082510449
1!
#11082614453
0!
#11082718457
1!
#11082822461
0!
#11082926465
1!
#11083030469
0!
#11083134473
1!
#11083238750
0!
#11083342754
1!
#11083446758
0!
#11083966778
1!
#11084070782
0!
#11084174786
1!
#11084279062
0!
#11084487070
1!
#11084799082
0!
#11085007090
1!
#11085111094
0!
#11085215098
1!
#11085319375
0!
#11085423379
1!
#11085631387
0!
#11085735391
1!
#11085839394
0!
#11086047403
1!
#11086151407
0!
#11086255411
1!
#11086359687
0!
#11086463691
1!
#11086567695
0!
#11086775703
1!
#11086983711
0!
#11087087715
1!
#11087191719
0!
#11087295723
1!
#11087400000
0!
#11087608008
1!
#11087712012
0!
#11087816016
1!
#11087920020
0!
#11088336036
1!
#12087401062
0!
#12087609070
1!
#12087713074
0!
#12087921082
1!
#12088025086
0!
#12088129090
1!
#12088233094
0!
#12088337098
1!
#12088441375
0!
#12088545379
1!
#12088649383
0!
#12089169403
1!
#12089273407
0!
#12089377411
1!
#12089481687
0!
#12089793699
1!
#12089897703
0!
#12090001707
1!
#12090105711
0!
#12090209715
1!
#12090313719
0!
#12090417723
1!
#12090522000
0!
#12090626004
1!
#12090730008
0!
#12091250028
1!
#12091354032
0!
#12091458036
1!
#12091562312
0!
#12091770320
1!
#12092082332
0!
#12092290340
1!
#12092394344
0!
#12092498348
1!
#12092602625
0!
#12092706629
1!
#12092914637
0!
#12093018641
1!
#12093122645
0!
#12093330653
1!
#12093434657
0!
#12093538661
1!
#12093642937
0!
#12093746941
1!
#12093850945
0!
#12094058953
1!
#12094266961
0!
#12094370965
1!
#12094474969
0!
#12094578973
1!
#12094683250
0!
#12094891257
1!
#12094995262
0!
#12095099266
1!
#12095203269
0!
#12095619286
1!
#13094684312
0!
#13094892320
1!
#13094996324
0!
#13095204332
1!
#13095308336
0!
#13095412340
1!
#13095516344
0!
#13095620348
1!
#13095724625
0!
#13095828629
1!
#13095932633
0!
#13096452653
1!
#13096556656
0!
#13096660661
1!
#13096764937
0!
#13097076949
1!
#13097180953
0!
#13097284957
1!
#13097388961
0!
#13097492965
1!
#13097596969
0!
#13097700973
1!
#13097805250
0!
#13097909254
1!
#13098013258
0!
#13098533278
1!
#13098637282
0!
#13098741286
1!
#13098845562
0!
#13099053570
1!
#13099365582
0!
#13099573590
1!
#13099677594
0!
#13099781598
1!
#13099885875
0!
#13099989879
1!
#13100197887
0!
#13100301891
1!
#13100405895
0!
#13100613903
1!
#13100717907
0!
#13100821911
1!
#13100926187
0!
#13101030191
1!
#13101134195
0!
#13101342203
1!
#13101550211
0!
#13101654215
1!
#13101758219
0!
#13101862223
1!
#13101966500
0!
#13102174508
1!
#13102278512
0!
#13102382516
1!
#13102486520
0!
#13102902536
1!
#14101967562
0!
#14102175570
1!
#14102279574
0!
#14102487582
1!
#14102591586
0!
#14102695590
1!
#14102799594
0!
#14102903598
1!
#14103007875
0!
#14103111879
1!
#14103215882
0!
#14103735903
1!
#14103839907
0!
#14103943911
1!
#14104048187
0!
#14104360199
1!
#14104464203
0!
#14104568207
1!
#14104672211
0!
#14104776215
1!
#14104880219
0!
#14104984223
1!
#14105088500
0!
#14105192504
1!
#14105296507
0!
#14105816528
1!
#14105920531
0!
#14106024536
1!
#14106128812
0!
#14106336820
1!
#14106648832
0!
#14106856840
1!
#14106960844
0!
#14107064848
1!
#14107169125
0!
#14107273129
1!
#14107481137
0!
#14107585141
1!
#14107689145
0!
#14107897153
1!
#14108001157
0!
#14108105161
1!
#14108209437
0!
#14108313441
1!
#14108417445
0!
#14108625453
1!
#14108833461
0!
#14108937465
1!
#14109041469
0!
#14109145473
1!
#14109249750
0!
#14109457758
1!
#14109561762
0!
#14109665766
1!
#14109769770
0!
#14110185786
1!
#15109250812
0!
#15109458820
1!
#15109562824
0!
#15109770832
1!
#15109874836
0!
#15109978840
1!
#15110082844
0!
#15110186848
1!
#15110291125
0!
#15110395129
1!
#15110499133
0!
#15111019153
1!
#15111123157
0!
#15111227161
1!
#15111331437
0!
#15111643449
1!
#15111747453
0!
#15111851457
1!
#15111955461
0!
#15112059465
1!
#15112163469
0!
#15112267473
1!
#15112371750
0!
#15112475754
1!
#15112579757
0!
#15113099778
1!
#15113203782
0!
#15113307786
1!
#15113412062
0!
#15113620070
1!
#15113932082
0!
#15114140090
1!
#15114244094
0!
#15114348098
1!
#15114452375
0!
#15114556379
1!
#15114764387
0!
#15114868391
1!
#15114972394
0!
#15115180403
1!
#15115284406
0!
#15115388411
1!
#15115492687
0!
#15115596691
1!
#15115700695
0!
#15115908703
1!
#15116116711
0!
#15116220715
1!
#15116324719
0!
#15116428723
1!
#15116533000
0!
#15116741008
1!
#15116845012
0!
#15116949016
1!
#15117053020
0!
#15117469036
1!
#16116534062
0!
#16116742070
1!
#16116846074
0!
#16117054082
1!
#16117158086
0!
#16117262090
1!
#16117366094
0!
#16117470098
1!
#16117574375
0!
#16117678379
1!
#16117782382
0!
#16118302403
1!
#16118406406
0!
#16118510410
1!
#16118614687
0!
#16118926699
1!
#16119030703
0!
#16119134707
1!
#16119238711
0!
#16119342715
1!
#16119446719
0!
#16119550723
1!
#16119655000
0!
#16119759004
1!
#16119863008
0!
#16120383028
1!
#16120487032
0!
#16120591036
1!
#16120695312
0!
#16120903320
1!
#16121215332
0!
#16121423340
1!
#16121527344
0!
#16121631348
1!
#16121735625
0!
#16121839629
1!
#16122047637
0!
#16122151641
1!
#16122255645
0!
#16122463653
1!
#16122567657
0!
#16122671661
1!
#16122775937
0!
#16122879941
1!
#16122983945
0!
#16123191953
1!
#16123399961
0!
#16123503965
1!
#16123607969
0!
#16123711973
1!
#16123816250
0!
#16124024257
1!
#16124128262
0!
#16124232266
1!
#16124336270
0!
#16124752286
1!
#17123817312
0!
#17124025320
1!
#17124129324
0!
#17124337332
1!
#17124441336
0!
#17124545340
1!
#17124649344
0!
#17124753348
1!
#17124857625
0!
#17124961629
1!
#17125065633
0!
#17125585653
1!
#17125689657
0!
#17125793661
1!
#17125897937
0!
#17126209949
1!
#17126313953
0!
#17126417957
1!
#17126521961
0!
#17126625965
1!
#17126729969
0!
#17126833973
1!
#17126938249
0!
#17127042254
1!
#17127146258
0!
#17127666278
1!
#17127770282
0!
#17127874285
1!
#17127978562
0!
#17128186570
1!
#17128498582
0!
#17128706590
1!
#17128810594
0!
#17128914598
1!
#17129018875
0!
#17129122879
1!
#17129330886
0!
#17129434890
1!
#17129538895
0!
#17129746903
1!
#17129850907
0!
#17129954910
1!
#17130059187
0!
#17130163191
1!
#17130267195
0!
#17130475203
1!
#17130683211
0!
#17130787215
1!
#17130891219
0!
#17130995223
1!
#17131099500
0!
#17131307508
1!
#17131411512
0!
#17131515516
1!
#17131619520
0!
#17132035536
1!
#18131100562
0!
#18131308570
1!
#18131412574
0!
#18131620582
1!
#18131724586
0!
#18131828590
1!
#18131932594
0!
#18132036598
1!
#18132140875
0!
#18132244879
1!
#18132348883
0!
#18132868903
1!
#18132972907
0!
#18133076911
1!
#18133181187
0!
#18133493199
1!
#18133597203
0!
#18133701207
1!
#18133805211
0!
#18133909215
1!
#18134013219
0!
#18134117223
1!
#18134221500
0!
#18134325504
1!
#18134429508
0!
#18134949528
1!
#18135053532
0!
#18135157535
1!
#18135261812
0!
#18135469820
1!
#18135781832
0!
#18135989840
1!
#18136093844
0!
#18136197848
1!
#18136302125
0!
#18136406129
1!
#18136614137
0!
#18136718141
1!
#18136822145
0!
#18137030153
1!
#18137134157
0!
#18137238161
1!
#18137342437
0!
#18137446441
1!
#18137550445
0!
#18137758453
1!
#18137966461
0!
#18138070465
1!
#18138174469
0!
#18138278473
1!
#18138382750
0!
#18138590758
1!
#18138694761
0!
#18138798765
1!
#18138902769
0!
#18139318785
1!
#19138383812
0!
#19138591820
1!
#19138695824
0!
#19138903832
1!
#19139007836
0!
#19139111840
1!
#19139215844
0!
#19139319848
1!
#19139424125
0!
#19139528129
1!
#19139632133
0!
#19140152153
1!
#19140256157
0!
#19140360160
1!
#19140464437
0!
#19140776449
1!
#19140880453
0!
#19140984457
1!
#19141088461
0!
#19141192465
1!
#19141296469
0!
#19141400473
1!
#19141504750
0!
#19141608754
1!
#19141712758
0!
#19142232778
1!
#19142336782
0!
#19142440786
1!
#19142545062
0!
#19142753070
1!
#19143065082
0!
#19143273090
1!
#19143377094
0!
#19143481098
1!
#19143585375
0!
#19143689379
1!
#19143897387
0!
#19144001391
1!
#19144105395
0!
#19144313403
1!
#19144417407
0!
#19144521411
1!
#19144625687
0!
#19144729691
1!
#19144833695
0!
#19145041703
1!
#19145249711
0!
#19145353715
1!
#19145457719
0!
#19145561723
1!
#19145666000
0!
#19145874008
1!
#19145978011
0!
#19146082015
1!
#19146186020
0!
#19146602035
1!
#20145667062
0!
#20145875070
1!
#20145979074
0!
#20146187082
1!
#20146291086
0!
#20146395090
1!
#20146499094
0!
#20146603098
1!
#20146707375
0!
#20146811379
1!
#20146915383
0!
#20147435403
1!
#20147539407
0!
#20147643410
1!
#20147747687
0!
#20148059699
1!
#20148163703
0!
#20148267707
1!
#20148371711
0!
#20148475715
1!
#20148579719
0!
#20148683723
1!
#20148788000
0!
#20148892004
1!
#20148996008
0!
#20149516028
1!
#20149620032
0!
#20149724036
1!
#20149828312
0!
#20150036320
1!
#20150348332
0!
#20150556340
1!
#20150660344
0!
#20150764348
1!
#20150868625
0!
#20150972629
1!
#20151180637
0!
#20151284641
1!
#20151388645
0!
#20151596653
1!
#20151700657
0!
#20151804661
1!
#20151908937
0!
#20152012941
1!
#20152116945
0!
#20152324953
1!
#20152532961
0!
#20152636965
1!
#20152740969
0!
#20152844973
1!
#20152949250
0!
#20153157258
1!
#20153261261
0!
#20153365265
1!
#20153469270
0!
#20153885285
1!
#20449207937
1!
